%YAML 1.1
%TAG !u! tag:unity3d.com,2011:
--- !u!114 &11400000
MonoBehaviour:
  m_ObjectHideFlags: 0
  m_CorrespondingSourceObject: {fileID: 0}
  m_PrefabInternal: {fileID: 0}
  m_GameObject: {fileID: 0}
  m_Enabled: 1
  m_EditorHideFlags: 0
  m_Script: {fileID: 11500000, guid: 5d980b99640c77c408c53f3d0dee63bc, type: 3}
  m_Name: DescriptionChallenges
  m_EditorClassIdentifier: 
  dialog:
  - "Uma sequ\xEAncia de blocos foi constru\xEDda visando inserir a soma de dois valores
    em uma pe\xE7a. De acordo com a imagem, qual ser\xE1 o valor contido em P1?"
  - "Uma sequ\xEAncia de blocos foi criada para que a pe\xE7a P6 receba a subtra\xE7\xE3o
    de 9 e 4, mas n\xE3o ela est\xE1 funcionando. O que deve ser feito?"
  - "Uma sequ\xEAncia de blocos foi criada para que a pe\xE7a P8 receba o dobro de
    10, mas n\xE3o ela est\xE1 funcionando. O que dever ser feito para que esta sequ\xEAncia
    funcione?"
  - "Uma sequ\xEAncia de blocos foi criada para que P9 receba dobro do valor 8.2,
    mas o valor recebido n\xE3o cont\xE9m as casas decimais esperadas. O que deve
    ser feito?"
  - "Um sequ\xEAncia de blocos foi constru\xEDda visando realizar duas opera\xE7\xF5es
    com alguns n\xFAmeros. De acordo com a imagem, qual ser\xE1 o valor contido em
    P3?"
  - "Um sequ\xEAncia de blocos foi constru\xEDda visando realizar algumas opera\xE7\xF5es
    com duas pe\xE7as (P11 e P12). Por meio da visualiza\xE7\xE3o da imagem, podemos
    concluir que:"
  AText:
  - "O valor ser\xE1 22."
  - "Trocar a cor da pe\xE7a de opera\xE7\xE3o para laranja."
  - "Acrescentar duas pe\xE7as amarelas."
  - Trocar a cor de P9 para verde.
  - "O valor ser\xE1 46."
  - "A pe\xE7a P12 poderia ser tanto verde como azul."
  BText:
  - "O valor ser\xE1 25."
  - "Trocar a cor da pe\xE7a de opera\xE7\xE3o para amarela."
  - Trocar a cor de P8 para cinza.
  - "Remover a pe\xE7a de opera\xE7\xE3o."
  - "O valor ser\xE1 44."
  - "A pe\xE7a P12 s\xF3 poderia ser verde."
  CText:
  - "O valor ser\xE1 26."
  - "Trocar a cor da pe\xE7a de opera\xE7\xE3o para cinza."
  - "Acrescentar a pe\xE7a de finaliza\xE7\xE3o."
  - Trocar a cor de P9 para amarelo.
  - "O valor ser\xE1 48."
  - "A pe\xE7a P12 s\xF3 poderia ser azul."
  answer: 020000000100000003000000010000000300000001000000
